%YAML 1.1
%TAG !u! tag:unity3d.com,2011:
--- !u!114 &11400000
MonoBehaviour:
  m_ObjectHideFlags: 0
  m_PrefabParentObject: {fileID: 0}
  m_PrefabInternal: {fileID: 0}
  m_GameObject: {fileID: 0}
  m_Enabled: 1
  m_EditorHideFlags: 0
  m_Script: {fileID: 11500000, guid: 8988c48a0ad7f44c1bffa12fe60d4880, type: 3}
  m_Name: Superhero
  m_EditorClassIdentifier: 
  name: SuperHero figurine
  description: Gwendal's idol
  price: 15
  image: {fileID: 21300000, guid: e832cf8f08641464bbdfc0c301551afd, type: 3}
  fearFactor: 0
  effectDelay: 2
