%YAML 1.1
%TAG !u! tag:unity3d.com,2011:
--- !u!687078895 &4343727234628468602
SpriteAtlas:
  m_ObjectHideFlags: 0
  m_PrefabParentObject: {fileID: 0}
  m_PrefabInternal: {fileID: 0}
  m_Name: Characters
  m_EditorData:
    textureSettings:
      serializedVersion: 2
      anisoLevel: 1
      compressionQuality: 50
      maxTextureSize: 2048
      textureCompression: 0
      filterMode: 0
      generateMipMaps: 0
      readable: 0
      crunchedCompression: 0
      sRGB: 1
    platformSettings: []
    packingParameters:
      serializedVersion: 2
      padding: 4
      blockOffset: 1
      allowAlphaSplitting: 0
      enableRotation: 1
      enableTightPacking: 1
    variantMultiplier: 1
    packables:
    - {fileID: 2800000, guid: 0e0b3e8877fefe146a8c801f8acfaf29, type: 3}
    - {fileID: 2800000, guid: ae32e49aac99fb342ab7802569a8d9e8, type: 3}
    - {fileID: 2800000, guid: df32f30cc5de2a44e943d104978c8ad1, type: 3}
    - {fileID: 2800000, guid: 5b5ba55c7b1acd041b0e8626a0bd7e38, type: 3}
    bindAsDefault: 1
  m_MasterAtlas: {fileID: 0}
  m_PackedSprites:
  - {fileID: 21300000, guid: 5b5ba55c7b1acd041b0e8626a0bd7e38, type: 3}
  - {fileID: 21300024, guid: ae32e49aac99fb342ab7802569a8d9e8, type: 3}
  - {fileID: 21300026, guid: ae32e49aac99fb342ab7802569a8d9e8, type: 3}
  - {fileID: 21300020, guid: ae32e49aac99fb342ab7802569a8d9e8, type: 3}
  - {fileID: 21300022, guid: ae32e49aac99fb342ab7802569a8d9e8, type: 3}
  - {fileID: 21300032, guid: ae32e49aac99fb342ab7802569a8d9e8, type: 3}
  - {fileID: 21300028, guid: ae32e49aac99fb342ab7802569a8d9e8, type: 3}
  - {fileID: 21300030, guid: ae32e49aac99fb342ab7802569a8d9e8, type: 3}
  - {fileID: 21300014, guid: ae32e49aac99fb342ab7802569a8d9e8, type: 3}
  - {fileID: 21300012, guid: ae32e49aac99fb342ab7802569a8d9e8, type: 3}
  - {fileID: 21300010, guid: ae32e49aac99fb342ab7802569a8d9e8, type: 3}
  - {fileID: 21300008, guid: ae32e49aac99fb342ab7802569a8d9e8, type: 3}
  - {fileID: 21300006, guid: ae32e49aac99fb342ab7802569a8d9e8, type: 3}
  - {fileID: 21300004, guid: ae32e49aac99fb342ab7802569a8d9e8, type: 3}
  - {fileID: 21300002, guid: ae32e49aac99fb342ab7802569a8d9e8, type: 3}
  - {fileID: 21300000, guid: ae32e49aac99fb342ab7802569a8d9e8, type: 3}
  - {fileID: 21300018, guid: ae32e49aac99fb342ab7802569a8d9e8, type: 3}
  - {fileID: 21300016, guid: ae32e49aac99fb342ab7802569a8d9e8, type: 3}
  - {fileID: 21300030, guid: 0e0b3e8877fefe146a8c801f8acfaf29, type: 3}
  - {fileID: 21300028, guid: 0e0b3e8877fefe146a8c801f8acfaf29, type: 3}
  - {fileID: 21300008, guid: 0e0b3e8877fefe146a8c801f8acfaf29, type: 3}
  - {fileID: 21300026, guid: 0e0b3e8877fefe146a8c801f8acfaf29, type: 3}
  - {fileID: 21300010, guid: 0e0b3e8877fefe146a8c801f8acfaf29, type: 3}
  - {fileID: 21300024, guid: 0e0b3e8877fefe146a8c801f8acfaf29, type: 3}
  - {fileID: 21300012, guid: 0e0b3e8877fefe146a8c801f8acfaf29, type: 3}
  - {fileID: 21300022, guid: 0e0b3e8877fefe146a8c801f8acfaf29, type: 3}
  - {fileID: 21300014, guid: 0e0b3e8877fefe146a8c801f8acfaf29, type: 3}
  - {fileID: 21300020, guid: 0e0b3e8877fefe146a8c801f8acfaf29, type: 3}
  - {fileID: 21300000, guid: 0e0b3e8877fefe146a8c801f8acfaf29, type: 3}
  - {fileID: 21300002, guid: 0e0b3e8877fefe146a8c801f8acfaf29, type: 3}
  - {fileID: 21300004, guid: 0e0b3e8877fefe146a8c801f8acfaf29, type: 3}
  - {fileID: 21300006, guid: 0e0b3e8877fefe146a8c801f8acfaf29, type: 3}
  - {fileID: 21300016, guid: 0e0b3e8877fefe146a8c801f8acfaf29, type: 3}
  - {fileID: 21300018, guid: 0e0b3e8877fefe146a8c801f8acfaf29, type: 3}
  - {fileID: 21300020, guid: df32f30cc5de2a44e943d104978c8ad1, type: 3}
  - {fileID: 21300022, guid: df32f30cc5de2a44e943d104978c8ad1, type: 3}
  - {fileID: 21300024, guid: df32f30cc5de2a44e943d104978c8ad1, type: 3}
  - {fileID: 21300026, guid: df32f30cc5de2a44e943d104978c8ad1, type: 3}
  - {fileID: 21300018, guid: df32f30cc5de2a44e943d104978c8ad1, type: 3}
  - {fileID: 21300028, guid: df32f30cc5de2a44e943d104978c8ad1, type: 3}
  - {fileID: 21300016, guid: df32f30cc5de2a44e943d104978c8ad1, type: 3}
  - {fileID: 21300030, guid: df32f30cc5de2a44e943d104978c8ad1, type: 3}
  - {fileID: 21300002, guid: df32f30cc5de2a44e943d104978c8ad1, type: 3}
  - {fileID: 21300000, guid: df32f30cc5de2a44e943d104978c8ad1, type: 3}
  - {fileID: 21300006, guid: df32f30cc5de2a44e943d104978c8ad1, type: 3}
  - {fileID: 21300004, guid: df32f30cc5de2a44e943d104978c8ad1, type: 3}
  - {fileID: 21300010, guid: df32f30cc5de2a44e943d104978c8ad1, type: 3}
  - {fileID: 21300008, guid: df32f30cc5de2a44e943d104978c8ad1, type: 3}
  - {fileID: 21300014, guid: df32f30cc5de2a44e943d104978c8ad1, type: 3}
  - {fileID: 21300012, guid: df32f30cc5de2a44e943d104978c8ad1, type: 3}
  m_PackedSpriteNamesToIndex:
  - Ghost
  - Gwendal_tiled_12
  - Gwendal_tiled_13
  - Gwendal_tiled_10
  - Gwendal_tiled_11
  - Gwendal_tiled_16
  - Gwendal_tiled_14
  - Gwendal_tiled_15
  - Gwendal_tiled_7
  - Gwendal_tiled_6
  - Gwendal_tiled_5
  - Gwendal_tiled_4
  - Gwendal_tiled_3
  - Gwendal_tiled_2
  - Gwendal_tiled_1
  - Gwendal_tiled_0
  - Gwendal_tiled_9
  - Gwendal_tiled_8
  - GClown_15
  - GClown_14
  - GClown_4
  - GClown_13
  - GClown_5
  - GClown_12
  - GClown_6
  - GClown_11
  - GClown_7
  - GClown_10
  - GClown_0
  - GClown_1
  - GClown_2
  - GClown_3
  - GClown_8
  - GClown_9
  - GZombie_10
  - GZombie_11
  - GZombie_12
  - GZombie_13
  - GZombie_9
  - GZombie_14
  - GZombie_8
  - GZombie_15
  - GZombie_1
  - GZombie_0
  - GZombie_3
  - GZombie_2
  - GZombie_5
  - GZombie_4
  - GZombie_7
  - GZombie_6
  m_Tag: Characters
  m_IsVariant: 0
